-1.29663	-1
1.21973	1
-1.01069	-1
-1.00385	-1
-1.02085	-1
1.26778	1
-1.1026	-1
-1.20279	-1
1.02825	1
-1.0171	-1
0.860819	1
1.24314	1
1.01922	1
1.00763	1
1.36732	1
-0.998011	-1
-1.05712	-1
1.00822	1
-1.01381	-1
-0.981519	-1
-1.11254	-1
-0.949271	-1
-1.34989	-1
1.28519	1
1.00565	1
-1.02331	-1
-1.27143	-1
1.08074	1
-1.17624	-1
1.02071	1
0.991479	1
1.00991	1
-1.00764	-1
-1.23597	-1
1.31043	1
1.19592	1
-1.30251	-1
1.50236	1
1.00036	1
1.01923	1
-1.3929	-1
1.916	1
-1.007	-1
-1.29615	-1
1.01715	1
1.11536	1
1.39313	1
-1.22396	-1
-1.36913	-1
-1.24746	-1
-1.33176	-1
-1.12524	-1
-0.998241	-1
1.32787	1
-1.01565	-1
1.00873	1
-1.73427	-1
0.998216	1
-1.16041	-1
1.18571	1
-1.05145	-1
-1.03987	-1
-1.22135	-1
-1.01469	-1
-1.01886	-1
-1.59351	-1
-1.21915	-1
-1.66726	-1
0.999242	1
-1.00794	-1
-1.03708	-1
-1.14224	-1
-1.16969	-1
-1.37483	-1
1.04611	1
-1.00688	-1
-1.33191	-1
-1.00956	-1
1.01816	1
1.04997	1
0.995368	1
-1.04326	-1
-1.11205	-1
-1.00624	-1
-1.01122	-1
-1.02622	-1
-1.04285	-1
-1.05813	-1
-1.53963	-1
0.970031	1
-1.02833	-1
1.02118	1
-1.09361	-1
1.00523	1
-1.20694	-1
-1.13444	-1
-0.993296	-1
-1.00434	-1
-0.99537	-1
-1.01579	-1
-0.99586	-1
-1.2481	-1
1.07301	1
-1.3904	-1
-1.23145	-1
-1.24063	-1
-1.09566	-1
-1.01389	-1
-1.00373	-1
1.12323	1
-1.24677	-1
1.14256	1
-1.06913	-1
-1.11707	-1
-1.00832	-1
1.43549	1
1.39984	1
-1.00619	-1
1.0229	1
-1.39756	-1
0.695414	1
1.29608	1
-1.08253	-1
-1.29343	-1
-1.46503	-1
-0.985542	-1
-1.45177	-1
-1.25057	-1
-1.00294	-1
-1.11538	-1
1.1157	1
1.19886	1
-1.62021	-1
-1.4705	-1
-1.17917	-1
-1.95391	-1
-1.19025	-1
1.0203	1
0.988875	1
1.15806	1
-1.00669	-1
-1.84769	-1
-1.15099	-1
0.901847	1
-1.01411	-1
-0.996097	-1
-1.12477	-1
-1.07449	-1
0.988406	1
-1.07733	-1
1.00908	1
-1.35232	-1
1.01117	1
0.754659	1
-1.12887	-1
-1.17694	-1
1.51431	1
-1.69418	-1
-1.00269	-1
-1.00731	-1
-1.15486	-1
-1.23579	-1
-1.00109	-1
-1.01996	-1
-0.979895	-1
-1.21276	-1
-1.18277	-1
-1.10625	-1
1.00649	1
-1.00967	-1
-1.10687	-1
-1.08685	-1
-1.00753	-1
1.00448	1
-1.01024	-1
-1.30668	-1
-1.01105	-1
-1.00827	-1
-1.00751	-1
-1.1899	-1
1.00478	1
-1.17104	-1
1.02402	1
-1.22942	-1
-1.57898	-1
-1.00421	-1
-1.127	-1
-1.59079	-1
1.00031	1
-1.0633	-1
-1.01002	-1
-1.22203	-1
-1.11746	-1
-0.999187	-1
-1.01922	-1
-1.16216	-1
-0.997229	-1
-1.14119	-1
-1.36695	-1
-1.31458	-1
-1.27226	-1
-1.8801	-1
-1.04874	-1
-1.01168	-1
-1.34106	-1
1.17208	1
1.22805	1
1.15373	1
-1.88604	-1
-1.14246	-1
-1.17406	-1
-1.20116	-1
-0.998054	-1
1.00354	1
-1.19965	-1
-1.75315	-1
1.01729	1
1.0703	1
-1.00003	-1
-1.08726	-1
-1.31347	-1
-1.20732	-1
-1.83282	-1
1.0107	1
1.00984	1
1.18001	1
-1.00796	-1
-1.0195	-1
-1.39875	-1
-1.31564	-1
1.29052	1
-1.24206	-1
-1.00992	-1
1.09248	1
-1.12361	-1
1.10989	1
-1.01696	-1
-1.05118	-1
1.30619	1
-1.32375	-1
1.26597	1
1.21169	1
1.17725	1
-1.01317	-1
-1.22823	-1
1.01436	1
0.993363	1
-1.09283	-1
-1.10169	-1
1.25945	1
-0.328366	-1
-1.04563	-1
1.03592	1
-0.992868	-1
-1.27163	-1
-1.33025	-1
-1.23907	-1
-1.21284	-1
-1.009	-1
-1.00345	-1
-1.32102	-1
-1.30912	-1
-1.00199	-1
1.12988	1
-1.5041	-1
1.43574	1
1.0107	1
-1.64365	-1
1.03072	1
0.989958	1
1.00198	1
0.997139	1
-1.35874	-1
-1.00462	-1
0.652464	1
-1.20799	-1
-1.06953	-1
-1.00357	-1
-1.00457	-1
-1.01497	-1
-0.998694	-1
-0.999429	-1
-1.38946	-1
1.01179	1
0.996581	1
-1.46739	-1
-1.00534	-1
-1.81836	-1
-1.00486	-1
-1.02118	-1
1.00321	1
-1.19	-1
-1.0117	-1
-1.63033	-1
1.01427	1
-1.01454	-1
-1.23235	-1
-1.01144	-1
-1.01417	-1
1.00364	1
1.02278	1
0.990122	1
-1.10558	-1
-1.45819	-1
1.06528	1
-1.22322	-1
1.14151	1
1.01703	1
-1.15566	-1
-1.61353	-1
-1.31794	-1
-1.00342	-1
1.01493	1
-0.998583	-1
0.993961	1
-1.00636	-1
1.01851	1
1.00442	1
1.13587	1
-0.989863	-1
-0.99647	-1
-1.1607	-1
-1.0117	-1
1.18384	1
0.959931	1
-1.00233	-1
-1.01942	-1
-1.02025	-1
-0.998538	-1
0.947704	1
-1.0049	-1
1.05202	1
-1.00784	-1
1.02347	1
1.16282	1
-1.00883	-1
-1.04391	-1
-0.997586	-1
1.2239	1
-1.20458	-1
-1.01137	-1
-1.00674	-1
0.985229	1
-1.14168	-1
-1.26468	-1
-0.999717	-1
-0.99743	-1
-1.00552	-1
-0.993944	-1
1.02444	1
1.01233	1
0.998838	1
1.29904	1
-1.59251	-1
-1.0351	-1
1.00687	1
-1.01849	-1
0.978884	1
1.02478	1
-1.05974	-1
1.0721	1
-1.32665	-1
-0.996726	-1
-1.0607	-1
1.50103	1
-1.016	-1
-1.55932	-1
-0.999466	-1
0.530875	1
-0.990532	-1
-1.23121	-1
-1.34702	-1
-1.00791	-1
-1.49586	-1
1.1068	1
-0.927498	-1
-1.70978	-1
1.00341	1
-1.53369	-1
-1.03775	-1
-1.56843	-1
-1.21948	-1
-1.31287	-1
-1.01052	-1
-1.4796	-1
1.00742	1
-1.00691	-1
-1.00723	-1
-1.00192	-1
0.463611	1
1.12427	1
-1.01343	-1
-1.23077	-1
-1.05115	-1
0.969257	1
-0.993211	-1
-1.43114	-1
1.00586	1
-1.16138	-1
-1.27247	-1
-1.2834	-1
-1.05983	-1
0.993181	1
-1.00371	-1
1.00888	1
-1.24193	-1
-1.01461	-1
-1.06075	-1
-1.03768	-1
-1.13856	-1
1.01627	1
-1.43361	-1
1.16131	1
-1.02325	-1
-0.989902	-1
-1.3172	-1
-1.18255	-1
1.00782	1
-1.00961	-1
1.03421	1
-1.30856	-1
-0.983596	-1
1.00728	1
1.2343	1
-1.07232	-1
1.06991	1
-1.1412	-1
-1.13773	-1
-1.03902	-1
0.992697	1
1.04284	1
-0.999289	-1
-1.49188	-1
-0.920882	-1
1.01197	1
-1.46426	-1
-1.15387	-1
-1.00545	-1
1.02162	1
-1.41092	-1
1.0015	1
1.5947	1
1.21185	1
-1.11413	-1
-1.45096	-1
0.996979	1
-1.01361	-1
-1.42061	-1
-1.13625	-1
1.00824	1
-1.18222	-1
-1.2395	-1
1.00292	1
-1.09069	-1
-1.15029	-1
1.2458	1
1.40261	1
1.02053	1
-1.40156	-1
-1.00258	-1
1.01084	1
-1.41786	-1
-1.27468	-1
-1.0477	-1
1.43258	1
-1.10266	-1
-1.00557	-1
-1.59498	-1
1.48369	1
-1.01968	-1
-1.41767	-1
1.14123	1
1.0676	1
-1.17672	-1
-1.41452	-1
-1.20659	-1
-1.26728	-1
1.02	1
-1.14755	-1
0.963246	1
1.19806	1
0.9944	1
-1.15144	-1
-1.27726	-1
1.38939	1
1.18835	1
1.00922	1
-1.48819	-1
-1.41208	-1
-1.44472	-1
-1.00265	-1
-1.00051	-1
-0.970331	-1
-1.02648	-1
-1.167	-1
-1.33403	-1
-0.995841	-1
-1.14536	-1
-1.01549	-1
-1.23548	-1
-1.00366	-1
-1.44513	-1
-1.01603	-1
0.998353	1
-1.15096	-1
-0.996422	-1
-1.74606	-1
-1.00135	-1
-1.00818	-1
-1.26778	-1
-1.0121	-1
-1.45048	-1
1.25491	1
-1.46021	-1
1.01819	1
-1.06457	-1
0.987089	1
-1.01377	-1
1.11923	1
-1.61822	-1
-1.46751	-1
1.46364	1
1.20018	1
-1.88682	-1
-1.30539	-1
-1.17247	-1
-1.05066	-1
-1.00745	-1
-1.08178	-1
0.996349	1
-1.55451	-1
-1.8626	-1
-1.04827	-1
-1.43814	-1
-1.01719	-1
1.014	1
1.00355	1
-0.991922	-1
-1.04567	-1
-1.22464	-1
1.39388	1
-1.02716	-1
1.00277	1
-1.45552	-1
-1.42678	-1
-1.15385	-1
-1.0082	-1
1.00137	1
-1.00734	-1
-0.765335	-1
-1.00397	-1
-1.2827	-1
-1.03744	-1
-1.53018	-1
1.00718	1
-1.53551	-1
-1.03055	-1
0.987974	1
-1.5036	-1
1.30124	1
-1.11033	-1
1.29621	1
1.04583	1
1.00027	1
-1.008	-1
-1.02173	-1
1.02517	1
-1.05948	-1
1.01302	1
1.6887	1
-1.21536	-1
-1.06643	-1
-1.22906	-1
-1.07251	-1
-1.37494	-1
-1.10824	-1
-1.01291	-1
-1.17493	-1
-1.27892	-1
-1.20484	-1
1.07021	1
-1.54051	-1
-1.14422	-1
-1.55793	-1
-1.00651	-1
-1.47928	-1
-1.40803	-1
-1.18987	-1
-1.7468	-1
-1.02	-1
-1.56079	-1
1.01228	1
1.21527	1
-1.04303	-1
-0.998839	-1
1.13826	1
-1.04738	-1
-1.00463	-1
1.1782	1
-0.990177	-1
-1.07646	-1
-1.4873	-1
-1.00429	-1
-1.00707	-1
0.999527	1
-1.24104	-1
-1.11191	-1
-1.41037	-1
-1.31487	-1
-1.0261	-1
-1.52368	-1
1.00476	1
-1.46912	-1
1.25402	1
-1.33859	-1
-1.07756	-1
-1.09304	-1
-1.06798	-1
1.01619	1
0.90971	1
-0.996875	-1
1.01129	1
-1.35253	-1
-1.09061	-1
-0.991289	-1
-1.19263	-1
1.26835	1
-1.12069	-1
0.892241	1
-1.01224	-1
1.21262	1
-1.05917	-1
0.999469	1
1.00168	1
1.01906	1
-1.15426	-1
1.15605	1
-0.999378	-1
-1.28297	-1
1.01449	1
-1.01233	-1
-0.99404	-1
-1.39944	-1
0.088175	1
-1.45979	-1
1.01321	1
-1.50011	-1
-1.14012	-1
-1.0156	-1
-1.00294	-1
-1.06074	-1
1.00747	1
-1.00329	-1
-1.0059	-1
-1.10535	-1
-1.11042	-1
-0.995156	-1
1.37608	1
0.998578	1
-1.21199	-1
1.01356	1
1.31876	1
0.998991	1
-1.12106	-1
-1.01101	-1
-1.30684	-1
-1.24967	-1
-0.996627	-1
-0.997075	-1
-1.1248	-1
-1.08519	-1
-1.00962	-1
0.994527	1
1.03172	1
-0.992808	-1
-1.4917	-1
-1.54279	-1
-1.01113	-1
-1.00255	-1
-1.3021	-1
1.01091	1
-1.38031	-1
-1.05387	-1
-1.02934	-1
-1.01492	-1
-1.01783	-1
-1.30019	-1
-1.28548	-1
-1.01887	-1
-1.00174	-1
-1.01879	-1
-1.00483	-1
-1.04355	-1
-0.997716	-1
1.02748	1
1.7128	1
-1.43365	-1
-1.42315	-1
-1.24388	-1
-1.16023	-1
-1.00302	-1
-1.53154	-1
-1.26133	-1
-1.39534	-1
-0.999381	-1
1.17225	1
-1.47295	-1
-1.00657	-1
-1.04649	-1
1.01004	1
-1.03727	-1
-1.00088	-1
-1.00254	-1
0.984006	1
-1.09285	-1
1.30518	1
-1.08521	-1
-1.09045	-1
-1.33438	-1
1.02295	1
1.32254	1
-1.51805	-1
1.28984	1
-1.12499	-1
-1.00876	-1
-1.12404	-1
-1.00462	-1
-1.08296	-1
-1.07876	-1
-1.03134	-1
0.699455	1
1.01949	1
-1.39913	-1
-0.998985	-1
-1.30833	-1
-1.00863	-1
1.05517	1
1.32015	1
0.998933	1
-1.12156	-1
1.12651	1
1.02555	1
1.31548	1
1.014	1
-0.979318	-1
0.988821	1
-0.967727	-1
-1.15695	-1
-1.04994	-1
1.00148	1
-1.09491	-1
-1.15885	-1
-1.24591	-1
0.987318	1
-1.47232	-1
-1.01237	-1
1.20791	1
-1.00756	-1
1.15278	1
-1.26336	-1
-1.10958	-1
-1.10607	-1
1.46237	1
1.08688	1
1.36308	1
-1.22474	-1
1.00302	1
-1.39568	-1
1.00594	1
1.04352	1
-1.075	-1
-1.00497	-1
-1.29779	-1
0.957302	1
-1.4178	-1
-1.02182	-1
1.00166	1
-1.23379	-1
1.12065	1
1.01372	1
-1.00013	-1
1.53029	1
-1	-1
1.05261	1
-0.993657	-1
1.29057	1
1.0475	1
-0.998643	-1
1.43265	1
-1.02327	-1
1.00356	1
-1.5078	-1
1.11396	1
-1.00621	-1
1.01383	1
-1.2832	-1
1.00258	1
0.997279	1
-1.2704	-1
-1.63042	-1
1.32027	1
-1.14117	-1
-1.32306	-1
-1.01053	-1
1.05665	1
1.00377	1
-1.25652	-1
-1.0947	-1
-1.00685	-1
-1.27562	-1
-1.02981	-1
-1.29022	-1
-1.01634	-1
-1.00464	-1
-1.66933	-1
-1.08243	-1
0.977025	1
-1.21736	-1
1.00949	1
-0.996406	-1
1.01098	1
-1.02757	-1
-0.998931	-1
1.21054	1
-1.61673	-1
-1.21772	-1
1.21981	1
-1.09682	-1
1.39884	1
1.06273	1
-1.2368	-1
-1.00516	-1
-1.22453	-1
-1.20859	-1
-1.0029	-1
-1.16594	-1
-1.45286	-1
-0.997848	-1
0.998608	1
-0.954834	-1
1.11379	1
-1.00961	-1
-0.989986	-1
-1.11987	-1
-1.16494	-1
-1.00395	-1
-1.28987	-1
-1.00924	-1
1.01035	1
-1.00324	-1
-1.00861	-1
-1.32818	-1
-1.5198	-1
-1.23057	-1
1.05084	1
-1.01552	-1
0.997624	1
1.01504	1
-1.32934	-1
-1.06994	-1
0.67473	1
-1.21685	-1
-1.37944	-1
1.10169	1
0.994027	1
0.998119	1
0.991982	1
-1.01275	-1
-0.998649	-1
-1.06593	-1
1.0128	1
1.00289	1
-1.03808	-1
-1.01969	-1
-0.997402	-1
-0.880283	-1
-1.0053	-1
-1.00916	-1
-1.19977	-1
-1.34987	-1
-1.07295	-1
-1.42421	-1
-1.26538	-1
-1.00415	-1
-1.3679	-1
0.988436	1
-1.21012	-1
0.980951	1
0.999594	1
1.02067	1
-1.36381	-1
1.72232	1
-1.00325	-1
1.00969	1
-1.00425	-1
-1.17648	-1
-1.93694	-1
-1.19364	-1
-1.20711	-1
-1.21365	-1
-1.33383	-1
-1.13127	-1
1.23848	1
-1.12772	-1
-0.99153	-1
-1.02753	-1
-1.34569	-1
0.995605	1
1.11658	1
1.01117	1
-1.26659	-1
1.29744	1
-1.06605	-1
-0.389817	-1
-1.15373	-1
1.01735	1
-1.00444	-1
-1.01302	-1
1.31675	1
-1.02959	-1
1.62135	1
1.19923	1
1.03837	1
1.59336	1
-1.009	-1
-1.58549	-1
1.13338	1
-1.09222	-1
1.00269	1
-1.11179	-1
1.03088	1
-1.01646	-1
1.04045	1
0.999809	1
1.2226	1
-1.19371	-1
-1.00062	-1
1.38207	1
1.00859	1
-1.4477	-1
1.02535	1
-1.00082	-1
-0.999559	-1
-1.30085	-1
-0.988695	-1
-1.09791	-1
-0.999525	-1
-1.36836	-1
0.568103	1
-1.2066	-1
-1.26905	-1
-1.65265	-1
-1.51339	-1
-1.31241	-1
-1.28706	-1
-0.990276	-1
0.921438	1
-1.61645	-1
1.00717	1
0.980635	1
-1.00951	-1
-0.997427	-1
-1.03925	-1
1.01912	1
-1.00778	-1
-1.01547	-1
-1.81855	-1
1.3713	1
-1.19137	-1
-1.00675	-1
-0.992229	-1
-1.32218	-1
1.29452	1
-1.07855	-1
0.991687	1
-1.02407	-1
1.26896	1
-0.998456	-1
0.81605	1
1.53901	1
1.33864	1
-1.03446	-1
1.15526	1
-1.0801	-1
1.00696	1
-1.66414	-1
1.02055	1
-1.02742	-1
-0.999186	-1
-1.00379	-1
-1.18771	-1
-1.26233	-1
-1.14564	-1
-1.03662	-1
-1.0052	-1
-1.28139	-1
-0.989967	-1
-1.34407	-1
0.227274	1
-1.00633	-1
